[
  {
    "id": 1,
    "name": {
      "default": "OmniStack Week",
      "ptBR": "Semana OmniStack 11.0",
      "enEN": "OmniStack Week 11.0"
    },
    "description": {
      "ptBR": "Uma semana de curso desenvolvendo um aplicativo utilizando <u>React, React Native e Node.js</u>.",
      "enEN": "Development of a app using <u>React, React Native and Node.js</u>."
    }
  },
  {
    "id": 2,
    "name": {
      "default": "English Live"
    },
    "description": {
      "ptBR": "Curso de inglês com professores particulares e aulas em grupo.",
      "enEN": "English class with private teachers and group classes."
    }
  },
  {
    "id": 3,
    "name": {
      "default": "(Udemy) The Ultimate Guide to 2D Mobile Game Development with Unity:"
    },
    "description": {
      "ptBR": "Desenvolvimento do Dungeon Escape para Android.",
      "enEN": "Development of Dungeon Escape for Android devices."
    }
  },
  {
    "id": 4,
    "name": {
      "default": "(Udemy) The Ultimate Guide to Game Development with Unity:"
    },
    "description": {
      "ptBR": "Desenvolvimento de jogos 2D e 3D.",
      "enEN": "Development of 2D and 3D games."
    }
  },
  {
    "id": 5,
    "name": {
      "default": "MCSD (Microsoft Certified Solutions Developer):"
    },
    "description": {
      "ptBR": "20480: HTML5, CSS3 e JavaScript (Visual Studio)",
      "enEN": "20480: HTML5, CSS3 and JavaScript (Visual Studio)"
    }
  }
]