{
  "name": {
    "default": "Giovanni Pregnolato Rosim"
  },
  "birthday": {
    "default": "02/09/1992"
  },
  "address": {
    "default": "Alexandre Benois Street, 17, Apto 146 B, Vila Andrade – São Paulo - SP",
    "ptBR": "Rua Alexandre Benois, 17, Apto 146 B, Vila Andrade – São Paulo - SP",
    "enEN": "Alexandre Benois Street, 17, Apto 146 B, Vila Andrade – São Paulo - SP"
  },
  "phone": {
    "default": "+55 (11) 99559-3220"
  },
  "email": {
    "default": "giovanni_pr@hotmail.com"
  },
  "portfolio_url": {
    "default": "https://gdev.netlify.com/"
  },
  "title": {
    "default": "Front-End Developer | React.js | Game Developer",
    "enEN": "Front-End Developer | React.js | Game Developer"
  },
  "goals": {
    "default": "Work with game, web or system developer in a company with ambience that have a possibility of learn and share knowledge.",
    "ptBR": "Trabalhar como desenvolvedor de jogos, web front-end (com preferência para React.js) ou sistemas, em uma empresa com um ambiente jovem, com possibilidade de aprendizado e troca de conhecimento.",
    "enEN": "Work with game, web or system developer in a company with ambience that have a possibility of learn and share knowledge."
  },
  "education": {
    "default": "Graduation in Digital Games in FATEC Americana, conclusion at 2014.",
    "ptBR": "Graduação em Jogos Digitais. FATEC Americana, conclusão em 2014.",
    "enEN": "Graduation in Digital Games in FATEC Americana, conclusion at 2014."
  }
}